PS270 Final Project
…
EPI_data <- EPI_data |> select(iso, country, EPI.new)
EPI_data

# A tibble: 180 × 3
   iso   country             EPI.new
   <chr> <chr>                 <dbl>
 1 AFG   Afghanistan            31  
 2 ALB   Albania                52.2
 3 DZA   Algeria                41.7
 4 AGO   Angola                 40.1
 5 ATG   Antigua and Barbuda    55.6
 6 ARG   Argentina              47  
 7 ARM   Armenia                44.9
 8 AUS   Australia              63.1
 9 AUT   Austria                68.9
10 AZE   Azerbaijan             40.5
# ℹ 170 more rows
…
Rows: 3,077
Columns: 5
$ Entity                           <chr> "Afghanistan", "Afghanistan…
$ Code                             <chr> "AFG", "AFG", "AFG", "AFG",…
$ Year                             <dbl> 2006, 2008, 2010, 2011, 201…
$ `Democracy Index`                <dbl> 3.0600, 3.0200, 2.4800, 2.4…
$ `World region according to OWID` <chr> "Asia", "Asia", "Asia", "As…

democracy_data <- democracy_data |> filter(Year==2024)
democracy_data

# A tibble: 181 × 5
   Entity         Code   Year `Democracy Index` World region accordi…¹
   <chr>          <chr> <dbl>             <dbl> <chr>                 
 1 Afghanistan    AFG    2024              0.25 Asia                  
 2 Africa         <NA>   2024              3.92 <NA>                  
 3 Africa (popul… <NA>   2024              3.83 <NA>                  
 4 Albania        ALB    2024              6.2  Europe                
 5 Algeria        DZA    2024              3.55 Africa                
 6 Angola         AGO    2024              4.05 Africa                
 7 Argentina      ARG    2024              6.51 South America         
 8 Armenia        ARM    2024              5.35 Asia                  
 9 Asia           <NA>   2024              4.06 <NA>                  
10 Asia (populat… <NA>   2024              4.61 <NA>                  
# ℹ 171 more rows
# ℹ abbreviated name: ¹​`World region according to OWID`

library(tidyverse)
democracy_data <- arrange(democracy_data, `Democracy Index`)
democracy_data

# A tibble: 181 × 5
   Entity         Code   Year `Democracy Index` World region accordi…¹
   <chr>          <chr> <dbl>             <dbl> <chr>                 
 1 Afghanistan    AFG    2024              0.25 Asia                  
 2 Myanmar        MMR    2024              0.96 Asia                  
 3 North Korea    PRK    2024              1.08 Asia                  
 4 Central Afric… CAF    2024              1.18 Africa                
 5 Syria          SYR    2024              1.32 Asia                  
 6 Sudan          SDN    2024              1.46 Africa                
 7 Turkmenistan   TKM    2024              1.66 Asia                  
 8 Laos           LAO    2024              1.71 Asia                  
 9 Tajikistan     TJK    2024              1.83 Asia                  
10 Chad           TCD    2024              1.89 Africa                
# ℹ 171 more rows
# ℹ abbreviated name: ¹​`World region according to OWID`

democracy_data <- democracy_data |> rename(country = Entity)
democracy_data

# A tibble: 181 × 5
   country        Code   Year `Democracy Index` World region accordi…¹
   <chr>          <chr> <dbl>             <dbl> <chr>                 
 1 Afghanistan    AFG    2024              0.25 Asia                  
 2 Myanmar        MMR    2024              0.96 Asia                  
 3 North Korea    PRK    2024              1.08 Asia                  
 4 Central Afric… CAF    2024              1.18 Africa                
 5 Syria          SYR    2024              1.32 Asia                  
 6 Sudan          SDN    2024              1.46 Africa                
 7 Turkmenistan   TKM    2024              1.66 Asia                  
 8 Laos           LAO    2024              1.71 Asia                  
 9 Tajikistan     TJK    2024              1.83 Asia                  
10 Chad           TCD    2024              1.89 Africa                
# ℹ 171 more rows
# ℹ abbreviated name: ¹​`World region according to OWID`

combined_data <- inner_join(democracy_data,EPI_data,by = "country")
combined_data

# A tibble: 153 × 7
   country  Code   Year `Democracy Index` World region accordi…¹ iso  
   <chr>    <chr> <dbl>             <dbl> <chr>                  <chr>
 1 Afghani… AFG    2024              0.25 Asia                   AFG  
 2 Myanmar  MMR    2024              0.96 Asia                   MMR  
 3 Central… CAF    2024              1.18 Africa                 CAF  
 4 Sudan    SDN    2024              1.46 Africa                 SDN  
 5 Turkmen… TKM    2024              1.66 Asia                   TKM  
 6 Laos     LAO    2024              1.71 Asia                   LAO  
 7 Tajikis… TJK    2024              1.83 Asia                   TJK  
 8 Chad     TCD    2024              1.89 Africa                 TCD  
 9 Equator… GNQ    2024              1.92 Africa                 GNQ  
10 Iran     IRN    2024              1.96 Asia                   IRN  
# ℹ 143 more rows
# ℹ abbreviated name: ¹​`World region according to OWID`
# ℹ 1 more variable: EPI.new <dbl>
…
